/eos/infnts/atlas/gguerrie/13p6_TeV/ntuples/dilepton/ntuples_ATR22_Apr2022_mc20e/mc/Zjets/user.chugli.700320.Sh.DAOD_PHYS.e8351_s3681_r13145_p4926.R22-2L-bkgr-zjets-chugli-2_output_root/user.chugli.28633156._000001.output.root
/eos/infnts/atlas/gguerrie/13p6_TeV/ntuples/dilepton/ntuples_ATR22_Apr2022_mc20e/mc/Zjets/user.chugli.700320.Sh.DAOD_PHYS.e8351_s3681_r13145_p4926.R22-2L-bkgr-zjets-chugli-2_output_root/user.chugli.28633156._000002.output.root
/eos/infnts/atlas/gguerrie/13p6_TeV/ntuples/dilepton/ntuples_ATR22_Apr2022_mc20e/mc/Zjets/user.chugli.700321.Sh.DAOD_PHYS.e8351_s3681_r13145_p4926.R22-2L-bkgr-zjets-chugli-2_output_root/user.chugli.28633159._000001.output.root
/eos/infnts/atlas/gguerrie/13p6_TeV/ntuples/dilepton/ntuples_ATR22_Apr2022_mc20e/mc/Zjets/user.chugli.700321.Sh.DAOD_PHYS.e8351_s3681_r13145_p4926.R22-2L-bkgr-zjets-chugli-2_output_root/user.chugli.28633159._000002.output.root
/eos/infnts/atlas/gguerrie/13p6_TeV/ntuples/dilepton/ntuples_ATR22_Apr2022_mc20e/mc/Zjets/user.chugli.700321.Sh.DAOD_PHYS.e8351_s3681_r13145_p4926.R22-2L-bkgr-zjets-chugli-2_output_root/user.chugli.28633159._000003.output.root
/eos/infnts/atlas/gguerrie/13p6_TeV/ntuples/dilepton/ntuples_ATR22_Apr2022_mc20e/mc/Zjets/user.chugli.700321.Sh.DAOD_PHYS.e8351_s3681_r13145_p4926.R22-2L-bkgr-zjets-chugli-2_output_root/user.chugli.28633159._000004.output.root
/eos/infnts/atlas/gguerrie/13p6_TeV/ntuples/dilepton/ntuples_ATR22_Apr2022_mc20e/mc/Zjets/user.chugli.700321.Sh.DAOD_PHYS.e8351_s3681_r13145_p4926.R22-2L-bkgr-zjets-chugli-2_output_root/user.chugli.28633159._000005.output.root
/eos/infnts/atlas/gguerrie/13p6_TeV/ntuples/dilepton/ntuples_ATR22_Apr2022_mc20e/mc/Zjets/user.chugli.700321.Sh.DAOD_PHYS.e8351_s3681_r13145_p4926.R22-2L-bkgr-zjets-chugli-2_output_root/user.chugli.28633159._000006.output.root
/eos/infnts/atlas/gguerrie/13p6_TeV/ntuples/dilepton/ntuples_ATR22_Apr2022_mc20e/mc/Zjets/user.chugli.700321.Sh.DAOD_PHYS.e8351_s3681_r13145_p4926.R22-2L-bkgr-zjets-chugli-2_output_root/user.chugli.28633159._000007.output.root
/eos/infnts/atlas/gguerrie/13p6_TeV/ntuples/dilepton/ntuples_ATR22_Apr2022_mc20e/mc/Zjets/user.chugli.700321.Sh.DAOD_PHYS.e8351_s3681_r13145_p4926.R22-2L-bkgr-zjets-chugli-2_output_root/user.chugli.28633159._000008.output.root
/eos/infnts/atlas/gguerrie/13p6_TeV/ntuples/dilepton/ntuples_ATR22_Apr2022_mc20e/mc/Zjets/user.chugli.700321.Sh.DAOD_PHYS.e8351_s3681_r13145_p4926.R22-2L-bkgr-zjets-chugli-2_output_root/user.chugli.28633159._000009.output.root
/eos/infnts/atlas/gguerrie/13p6_TeV/ntuples/dilepton/ntuples_ATR22_Apr2022_mc20e/mc/Zjets/user.chugli.700322.Sh.DAOD_PHYS.e8351_s3681_r13145_p4926.R22-2L-bkgr-zjets-chugli-2_output_root/user.chugli.28633162._000001.output.root
/eos/infnts/atlas/gguerrie/13p6_TeV/ntuples/dilepton/ntuples_ATR22_Apr2022_mc20e/mc/Zjets/user.chugli.700322.Sh.DAOD_PHYS.e8351_s3681_r13145_p4926.R22-2L-bkgr-zjets-chugli-2_output_root/user.chugli.28633162._000002.output.root
/eos/infnts/atlas/gguerrie/13p6_TeV/ntuples/dilepton/ntuples_ATR22_Apr2022_mc20e/mc/Zjets/user.chugli.700322.Sh.DAOD_PHYS.e8351_s3681_r13145_p4926.R22-2L-bkgr-zjets-chugli-2_output_root/user.chugli.28633162._000003.output.root
/eos/infnts/atlas/gguerrie/13p6_TeV/ntuples/dilepton/ntuples_ATR22_Apr2022_mc20e/mc/Zjets/user.chugli.700322.Sh.DAOD_PHYS.e8351_s3681_r13145_p4926.R22-2L-bkgr-zjets-chugli-2_output_root/user.chugli.28633162._000004.output.root
/eos/infnts/atlas/gguerrie/13p6_TeV/ntuples/dilepton/ntuples_ATR22_Apr2022_mc20e/mc/Zjets/user.chugli.700322.Sh.DAOD_PHYS.e8351_s3681_r13145_p4926.R22-2L-bkgr-zjets-chugli-2_output_root/user.chugli.28633162._000005.output.root
/eos/infnts/atlas/gguerrie/13p6_TeV/ntuples/dilepton/ntuples_ATR22_Apr2022_mc20e/mc/Zjets/user.chugli.700322.Sh.DAOD_PHYS.e8351_s3681_r13145_p4926.R22-2L-bkgr-zjets-chugli-2_output_root/user.chugli.28633162._000006.output.root
/eos/infnts/atlas/gguerrie/13p6_TeV/ntuples/dilepton/ntuples_ATR22_Apr2022_mc20e/mc/Zjets/user.chugli.700322.Sh.DAOD_PHYS.e8351_s3681_r13145_p4926.R22-2L-bkgr-zjets-chugli-2_output_root/user.chugli.28633162._000007.output.root
/eos/infnts/atlas/gguerrie/13p6_TeV/ntuples/dilepton/ntuples_ATR22_Apr2022_mc20e/mc/Zjets/user.chugli.700322.Sh.DAOD_PHYS.e8351_s3681_r13145_p4926.R22-2L-bkgr-zjets-chugli-2_output_root/user.chugli.28633162._000008.output.root
/eos/infnts/atlas/gguerrie/13p6_TeV/ntuples/dilepton/ntuples_ATR22_Apr2022_mc20e/mc/Zjets/user.chugli.700322.Sh.DAOD_PHYS.e8351_s3681_r13145_p4926.R22-2L-bkgr-zjets-chugli-2_output_root/user.chugli.28633162._000009.output.root
/eos/infnts/atlas/gguerrie/13p6_TeV/ntuples/dilepton/ntuples_ATR22_Apr2022_mc20e/mc/Zjets/user.chugli.700322.Sh.DAOD_PHYS.e8351_s3681_r13145_p4926.R22-2L-bkgr-zjets-chugli-2_output_root/user.chugli.28633162._000010.output.root
/eos/infnts/atlas/gguerrie/13p6_TeV/ntuples/dilepton/ntuples_ATR22_Apr2022_mc20e/mc/Zjets/user.chugli.700322.Sh.DAOD_PHYS.e8351_s3681_r13145_p4926.R22-2L-bkgr-zjets-chugli-2_output_root/user.chugli.28633162._000011.output.root
/eos/infnts/atlas/gguerrie/13p6_TeV/ntuples/dilepton/ntuples_ATR22_Apr2022_mc20e/mc/Zjets/user.chugli.700322.Sh.DAOD_PHYS.e8351_s3681_r13145_p4926.R22-2L-bkgr-zjets-chugli-2_output_root/user.chugli.28633162._000012.output.root
/eos/infnts/atlas/gguerrie/13p6_TeV/ntuples/dilepton/ntuples_ATR22_Apr2022_mc20e/mc/Zjets/user.chugli.700322.Sh.DAOD_PHYS.e8351_s3681_r13145_p4926.R22-2L-bkgr-zjets-chugli-2_output_root/user.chugli.28633162._000013.output.root
/eos/infnts/atlas/gguerrie/13p6_TeV/ntuples/dilepton/ntuples_ATR22_Apr2022_mc20e/mc/Zjets/user.chugli.700322.Sh.DAOD_PHYS.e8351_s3681_r13145_p4926.R22-2L-bkgr-zjets-chugli-2_output_root/user.chugli.28633162._000014.output.root
/eos/infnts/atlas/gguerrie/13p6_TeV/ntuples/dilepton/ntuples_ATR22_Apr2022_mc20e/mc/Zjets/user.chugli.700322.Sh.DAOD_PHYS.e8351_s3681_r13145_p4926.R22-2L-bkgr-zjets-chugli-2_output_root/user.chugli.28633162._000015.output.root
/eos/infnts/atlas/gguerrie/13p6_TeV/ntuples/dilepton/ntuples_ATR22_Apr2022_mc20e/mc/Zjets/user.chugli.700322.Sh.DAOD_PHYS.e8351_s3681_r13145_p4926.R22-2L-bkgr-zjets-chugli-2_output_root/user.chugli.28633162._000016.output.root
/eos/infnts/atlas/gguerrie/13p6_TeV/ntuples/dilepton/ntuples_ATR22_Apr2022_mc20e/mc/Zjets/user.chugli.700322.Sh.DAOD_PHYS.e8351_s3681_r13145_p4926.R22-2L-bkgr-zjets-chugli-2_output_root/user.chugli.28633162._000017.output.root
/eos/infnts/atlas/gguerrie/13p6_TeV/ntuples/dilepton/ntuples_ATR22_Apr2022_mc20e/mc/Zjets/user.chugli.700322.Sh.DAOD_PHYS.e8351_s3681_r13145_p4926.R22-2L-bkgr-zjets-chugli-2_output_root/user.chugli.28633162._000018.output.root
/eos/infnts/atlas/gguerrie/13p6_TeV/ntuples/dilepton/ntuples_ATR22_Apr2022_mc20e/mc/Zjets/user.chugli.700322.Sh.DAOD_PHYS.e8351_s3681_r13145_p4926.R22-2L-bkgr-zjets-chugli-2_output_root/user.chugli.28633162._000019.output.root
/eos/infnts/atlas/gguerrie/13p6_TeV/ntuples/dilepton/ntuples_ATR22_Apr2022_mc20e/mc/Zjets/user.chugli.700322.Sh.DAOD_PHYS.e8351_s3681_r13145_p4926.R22-2L-bkgr-zjets-chugli-2_output_root/user.chugli.28633162._000020.output.root
/eos/infnts/atlas/gguerrie/13p6_TeV/ntuples/dilepton/ntuples_ATR22_Apr2022_mc20e/mc/Zjets/user.chugli.700322.Sh.DAOD_PHYS.e8351_s3681_r13145_p4926.R22-2L-bkgr-zjets-chugli-2_output_root/user.chugli.28633162._000021.output.root
/eos/infnts/atlas/gguerrie/13p6_TeV/ntuples/dilepton/ntuples_ATR22_Apr2022_mc20e/mc/Zjets/user.chugli.700322.Sh.DAOD_PHYS.e8351_s3681_r13145_p4926.R22-2L-bkgr-zjets-chugli-2_output_root/user.chugli.28633162._000022.output.root
/eos/infnts/atlas/gguerrie/13p6_TeV/ntuples/dilepton/ntuples_ATR22_Apr2022_mc20e/mc/Zjets/user.chugli.700322.Sh.DAOD_PHYS.e8351_s3681_r13145_p4926.R22-2L-bkgr-zjets-chugli-2_output_root/user.chugli.28633162._000023.output.root
/eos/infnts/atlas/gguerrie/13p6_TeV/ntuples/dilepton/ntuples_ATR22_Apr2022_mc20e/mc/Zjets/user.chugli.700322.Sh.DAOD_PHYS.e8351_s3681_r13145_p4926.R22-2L-bkgr-zjets-chugli-2_output_root/user.chugli.28633162._000024.output.root
/eos/infnts/atlas/gguerrie/13p6_TeV/ntuples/dilepton/ntuples_ATR22_Apr2022_mc20e/mc/Zjets/user.chugli.700322.Sh.DAOD_PHYS.e8351_s3681_r13145_p4926.R22-2L-bkgr-zjets-chugli-2_output_root/user.chugli.28633162._000025.output.root
/eos/infnts/atlas/gguerrie/13p6_TeV/ntuples/dilepton/ntuples_ATR22_Apr2022_mc20e/mc/Zjets/user.chugli.700322.Sh.DAOD_PHYS.e8351_s3681_r13145_p4926.R22-2L-bkgr-zjets-chugli-2_output_root/user.chugli.28633162._000026.output.root
/eos/infnts/atlas/gguerrie/13p6_TeV/ntuples/dilepton/ntuples_ATR22_Apr2022_mc20e/mc/Zjets/user.chugli.700322.Sh.DAOD_PHYS.e8351_s3681_r13145_p4926.R22-2L-bkgr-zjets-chugli-2_output_root/user.chugli.28633162._000027.output.root
/eos/infnts/atlas/gguerrie/13p6_TeV/ntuples/dilepton/ntuples_ATR22_Apr2022_mc20e/mc/Zjets/user.chugli.700322.Sh.DAOD_PHYS.e8351_s3681_r13145_p4926.R22-2L-bkgr-zjets-chugli-2_output_root/user.chugli.28633162._000028.output.root
/eos/infnts/atlas/gguerrie/13p6_TeV/ntuples/dilepton/ntuples_ATR22_Apr2022_mc20e/mc/Zjets/user.chugli.700322.Sh.DAOD_PHYS.e8351_s3681_r13145_p4926.R22-2L-bkgr-zjets-chugli-2_output_root/user.chugli.28633162._000029.output.root
/eos/infnts/atlas/gguerrie/13p6_TeV/ntuples/dilepton/ntuples_ATR22_Apr2022_mc20e/mc/Zjets/user.chugli.700322.Sh.DAOD_PHYS.e8351_s3681_r13145_p4926.R22-2L-bkgr-zjets-chugli-2_output_root/user.chugli.28633162._000030.output.root
/eos/infnts/atlas/gguerrie/13p6_TeV/ntuples/dilepton/ntuples_ATR22_Apr2022_mc20e/mc/Zjets/user.chugli.700322.Sh.DAOD_PHYS.e8351_s3681_r13145_p4926.R22-2L-bkgr-zjets-chugli-2_output_root/user.chugli.28633162._000031.output.root
/eos/infnts/atlas/gguerrie/13p6_TeV/ntuples/dilepton/ntuples_ATR22_Apr2022_mc20e/mc/Zjets/user.chugli.700322.Sh.DAOD_PHYS.e8351_s3681_r13145_p4926.R22-2L-bkgr-zjets-chugli-2_output_root/user.chugli.28633162._000032.output.root
/eos/infnts/atlas/gguerrie/13p6_TeV/ntuples/dilepton/ntuples_ATR22_Apr2022_mc20e/mc/Zjets/user.chugli.700322.Sh.DAOD_PHYS.e8351_s3681_r13145_p4926.R22-2L-bkgr-zjets-chugli-2_output_root/user.chugli.28633162._000033.output.root
/eos/infnts/atlas/gguerrie/13p6_TeV/ntuples/dilepton/ntuples_ATR22_Apr2022_mc20e/mc/Zjets/user.chugli.700322.Sh.DAOD_PHYS.e8351_s3681_r13145_p4926.R22-2L-bkgr-zjets-chugli-2_output_root/user.chugli.28633162._000034.output.root
/eos/infnts/atlas/gguerrie/13p6_TeV/ntuples/dilepton/ntuples_ATR22_Apr2022_mc20e/mc/Zjets/user.chugli.700322.Sh.DAOD_PHYS.e8351_s3681_r13145_p4926.R22-2L-bkgr-zjets-chugli-2_output_root/user.chugli.28633162._000035.output.root
/eos/infnts/atlas/gguerrie/13p6_TeV/ntuples/dilepton/ntuples_ATR22_Apr2022_mc20e/mc/Zjets/user.chugli.700322.Sh.DAOD_PHYS.e8351_s3681_r13145_p4926.R22-2L-bkgr-zjets-chugli-2_output_root/user.chugli.28633162._000036.output.root
/eos/infnts/atlas/gguerrie/13p6_TeV/ntuples/dilepton/ntuples_ATR22_Apr2022_mc20e/mc/Zjets/user.chugli.700322.Sh.DAOD_PHYS.e8351_s3681_r13145_p4926.R22-2L-bkgr-zjets-chugli-2_output_root/user.chugli.28633162._000037.output.root
/eos/infnts/atlas/gguerrie/13p6_TeV/ntuples/dilepton/ntuples_ATR22_Apr2022_mc20e/mc/Zjets/user.chugli.700322.Sh.DAOD_PHYS.e8351_s3681_r13145_p4926.R22-2L-bkgr-zjets-chugli-2_output_root/user.chugli.28633162._000038.output.root
/eos/infnts/atlas/gguerrie/13p6_TeV/ntuples/dilepton/ntuples_ATR22_Apr2022_mc20e/mc/Zjets/user.chugli.700322.Sh.DAOD_PHYS.e8351_s3681_r13145_p4926.R22-2L-bkgr-zjets-chugli-2_output_root/user.chugli.28633162._000039.output.root
/eos/infnts/atlas/gguerrie/13p6_TeV/ntuples/dilepton/ntuples_ATR22_Apr2022_mc20e/mc/Zjets/user.chugli.700322.Sh.DAOD_PHYS.e8351_s3681_r13145_p4926.R22-2L-bkgr-zjets-chugli-2_output_root/user.chugli.28633162._000040.output.root
/eos/infnts/atlas/gguerrie/13p6_TeV/ntuples/dilepton/ntuples_ATR22_Apr2022_mc20e/mc/Zjets/user.chugli.700322.Sh.DAOD_PHYS.e8351_s3681_r13145_p4926.R22-2L-bkgr-zjets-chugli-2_output_root/user.chugli.28633162._000041.output.root
/eos/infnts/atlas/gguerrie/13p6_TeV/ntuples/dilepton/ntuples_ATR22_Apr2022_mc20e/mc/Zjets/user.chugli.700322.Sh.DAOD_PHYS.e8351_s3681_r13145_p4926.R22-2L-bkgr-zjets-chugli-2_output_root/user.chugli.28633162._000042.output.root
/eos/infnts/atlas/gguerrie/13p6_TeV/ntuples/dilepton/ntuples_ATR22_Apr2022_mc20e/mc/Zjets/user.chugli.700322.Sh.DAOD_PHYS.e8351_s3681_r13145_p4926.R22-2L-bkgr-zjets-chugli-2_output_root/user.chugli.28633162._000043.output.root
/eos/infnts/atlas/gguerrie/13p6_TeV/ntuples/dilepton/ntuples_ATR22_Apr2022_mc20e/mc/Zjets/user.chugli.700322.Sh.DAOD_PHYS.e8351_s3681_r13145_p4926.R22-2L-bkgr-zjets-chugli-2_output_root/user.chugli.28633162._000044.output.root
/eos/infnts/atlas/gguerrie/13p6_TeV/ntuples/dilepton/ntuples_ATR22_Apr2022_mc20e/mc/Zjets/user.chugli.700322.Sh.DAOD_PHYS.e8351_s3681_r13145_p4926.R22-2L-bkgr-zjets-chugli-2_output_root/user.chugli.28633162._000045.output.root
/eos/infnts/atlas/gguerrie/13p6_TeV/ntuples/dilepton/ntuples_ATR22_Apr2022_mc20e/mc/Zjets/user.chugli.700322.Sh.DAOD_PHYS.e8351_s3681_r13145_p4926.R22-2L-bkgr-zjets-chugli-2_output_root/user.chugli.28633162._000046.output.root
/eos/infnts/atlas/gguerrie/13p6_TeV/ntuples/dilepton/ntuples_ATR22_Apr2022_mc20e/mc/Zjets/user.chugli.700322.Sh.DAOD_PHYS.e8351_s3681_r13145_p4926.R22-2L-bkgr-zjets-chugli-2_output_root/user.chugli.28633162._000047.output.root
/eos/infnts/atlas/gguerrie/13p6_TeV/ntuples/dilepton/ntuples_ATR22_Apr2022_mc20e/mc/Zjets/user.chugli.700322.Sh.DAOD_PHYS.e8351_s3681_r13145_p4926.R22-2L-bkgr-zjets-chugli-2_output_root/user.chugli.28633162._000048.output.root
/eos/infnts/atlas/gguerrie/13p6_TeV/ntuples/dilepton/ntuples_ATR22_Apr2022_mc20e/mc/Zjets/user.chugli.700322.Sh.DAOD_PHYS.e8351_s3681_r13145_p4926.R22-2L-bkgr-zjets-chugli-2_output_root/user.chugli.28633162._000049.output.root
/eos/infnts/atlas/gguerrie/13p6_TeV/ntuples/dilepton/ntuples_ATR22_Apr2022_mc20e/mc/Zjets/user.chugli.700322.Sh.DAOD_PHYS.e8351_s3681_r13145_p4926.R22-2L-bkgr-zjets-chugli-2_output_root/user.chugli.28633162._000051.output.root
/eos/infnts/atlas/gguerrie/13p6_TeV/ntuples/dilepton/ntuples_ATR22_Apr2022_mc20e/mc/Zjets/user.chugli.700322.Sh.DAOD_PHYS.e8351_s3681_r13145_p4926.R22-2L-bkgr-zjets-chugli-2_output_root/user.chugli.28633162._000052.output.root
/eos/infnts/atlas/gguerrie/13p6_TeV/ntuples/dilepton/ntuples_ATR22_Apr2022_mc20e/mc/Zjets/user.chugli.700322.Sh.DAOD_PHYS.e8351_s3681_r13145_p4926.R22-2L-bkgr-zjets-chugli-2_output_root/user.chugli.28633162._000053.output.root
/eos/infnts/atlas/gguerrie/13p6_TeV/ntuples/dilepton/ntuples_ATR22_Apr2022_mc20e/mc/Zjets/user.chugli.700322.Sh.DAOD_PHYS.e8351_s3681_r13145_p4926.R22-2L-bkgr-zjets-chugli-2_output_root/user.chugli.28633162._000054.output.root
/eos/infnts/atlas/gguerrie/13p6_TeV/ntuples/dilepton/ntuples_ATR22_Apr2022_mc20e/mc/Zjets/user.chugli.700322.Sh.DAOD_PHYS.e8351_s3681_r13145_p4926.R22-2L-bkgr-zjets-chugli-2_output_root/user.chugli.28633162._000055.output.root
/eos/infnts/atlas/gguerrie/13p6_TeV/ntuples/dilepton/ntuples_ATR22_Apr2022_mc20e/mc/Zjets/user.chugli.700322.Sh.DAOD_PHYS.e8351_s3681_r13145_p4926.R22-2L-bkgr-zjets-chugli-2_output_root/user.chugli.28633162._000056.output.root
/eos/infnts/atlas/gguerrie/13p6_TeV/ntuples/dilepton/ntuples_ATR22_Apr2022_mc20e/mc/Zjets/user.chugli.700322.Sh.DAOD_PHYS.e8351_s3681_r13145_p4926.R22-2L-bkgr-zjets-chugli-2_output_root/user.chugli.28633162._000057.output.root
/eos/infnts/atlas/gguerrie/13p6_TeV/ntuples/dilepton/ntuples_ATR22_Apr2022_mc20e/mc/Zjets/user.chugli.700322.Sh.DAOD_PHYS.e8351_s3681_r13145_p4926.R22-2L-bkgr-zjets-chugli-2_output_root/user.chugli.28633162._000058.output.root
/eos/infnts/atlas/gguerrie/13p6_TeV/ntuples/dilepton/ntuples_ATR22_Apr2022_mc20e/mc/Zjets/user.chugli.700322.Sh.DAOD_PHYS.e8351_s3681_r13145_p4926.R22-2L-bkgr-zjets-chugli-2_output_root/user.chugli.28633162._000059.output.root
/eos/infnts/atlas/gguerrie/13p6_TeV/ntuples/dilepton/ntuples_ATR22_Apr2022_mc20e/mc/Zjets/user.chugli.700322.Sh.DAOD_PHYS.e8351_s3681_r13145_p4926.R22-2L-bkgr-zjets-chugli-2_output_root/user.chugli.28633162._000060.output.root
/eos/infnts/atlas/gguerrie/13p6_TeV/ntuples/dilepton/ntuples_ATR22_Apr2022_mc20e/mc/Zjets/user.chugli.700322.Sh.DAOD_PHYS.e8351_s3681_r13145_p4926.R22-2L-bkgr-zjets-chugli-2_output_root/user.chugli.28633162._000062.output.root
/eos/infnts/atlas/gguerrie/13p6_TeV/ntuples/dilepton/ntuples_ATR22_Apr2022_mc20e/mc/Zjets/user.chugli.700322.Sh.DAOD_PHYS.e8351_s3681_r13145_p4926.R22-2L-bkgr-zjets-chugli-2_output_root/user.chugli.28633162._000063.output.root
/eos/infnts/atlas/gguerrie/13p6_TeV/ntuples/dilepton/ntuples_ATR22_Apr2022_mc20e/mc/Zjets/user.chugli.700322.Sh.DAOD_PHYS.e8351_s3681_r13145_p4926.R22-2L-bkgr-zjets-chugli-2_output_root/user.chugli.28633162._000064.output.root
/eos/infnts/atlas/gguerrie/13p6_TeV/ntuples/dilepton/ntuples_ATR22_Apr2022_mc20e/mc/Zjets/user.chugli.700322.Sh.DAOD_PHYS.e8351_s3681_r13145_p4926.R22-2L-bkgr-zjets-chugli-2_output_root/user.chugli.28633162._000065.output.root
/eos/infnts/atlas/gguerrie/13p6_TeV/ntuples/dilepton/ntuples_ATR22_Apr2022_mc20e/mc/Zjets/user.chugli.700322.Sh.DAOD_PHYS.e8351_s3681_r13145_p4926.R22-2L-bkgr-zjets-chugli-2_output_root/user.chugli.28633162._000066.output.root
/eos/infnts/atlas/gguerrie/13p6_TeV/ntuples/dilepton/ntuples_ATR22_Apr2022_mc20e/mc/Zjets/user.chugli.700322.Sh.DAOD_PHYS.e8351_s3681_r13145_p4926.R22-2L-bkgr-zjets-chugli-2_output_root/user.chugli.28633162._000067.output.root
/eos/infnts/atlas/gguerrie/13p6_TeV/ntuples/dilepton/ntuples_ATR22_Apr2022_mc20e/mc/Zjets/user.chugli.700322.Sh.DAOD_PHYS.e8351_s3681_r13145_p4926.R22-2L-bkgr-zjets-chugli-2_output_root/user.chugli.28633162._000068.output.root
/eos/infnts/atlas/gguerrie/13p6_TeV/ntuples/dilepton/ntuples_ATR22_Apr2022_mc20e/mc/Zjets/user.chugli.700322.Sh.DAOD_PHYS.e8351_s3681_r13145_p4926.R22-2L-bkgr-zjets-chugli-2_output_root/user.chugli.28633162._000069.output.root
/eos/infnts/atlas/gguerrie/13p6_TeV/ntuples/dilepton/ntuples_ATR22_Apr2022_mc20e/mc/Zjets/user.chugli.700322.Sh.DAOD_PHYS.e8351_s3681_r13145_p4926.R22-2L-bkgr-zjets-chugli-2_output_root/user.chugli.28633162._000070.output.root
/eos/infnts/atlas/gguerrie/13p6_TeV/ntuples/dilepton/ntuples_ATR22_Apr2022_mc20e/mc/Zjets/user.chugli.700322.Sh.DAOD_PHYS.e8351_s3681_r13145_p4926.R22-2L-bkgr-zjets-chugli-2_output_root/user.chugli.28633162._000072.output.root
/eos/infnts/atlas/gguerrie/13p6_TeV/ntuples/dilepton/ntuples_ATR22_Apr2022_mc20e/mc/Zjets/user.chugli.700322.Sh.DAOD_PHYS.e8351_s3681_r13145_p4926.R22-2L-bkgr-zjets-chugli-2_output_root/user.chugli.28633162._000073.output.root
/eos/infnts/atlas/gguerrie/13p6_TeV/ntuples/dilepton/ntuples_ATR22_Apr2022_mc20e/mc/Zjets/user.chugli.700322.Sh.DAOD_PHYS.e8351_s3681_r13145_p4926.R22-2L-bkgr-zjets-chugli-2_output_root/user.chugli.28633162._000074.output.root
/eos/infnts/atlas/gguerrie/13p6_TeV/ntuples/dilepton/ntuples_ATR22_Apr2022_mc20e/mc/Zjets/user.chugli.700322.Sh.DAOD_PHYS.e8351_s3681_r13145_p4926.R22-2L-bkgr-zjets-chugli-2_output_root/user.chugli.28633162._000075.output.root
