/eos/infnts/atlas/gguerrie/13p6_TeV/ntuples/singlelepton/ntuples_ATR22_Apr2022_mc20d/mc/Zjets/user.chugli.700326.Sh.DAOD_PHYS.e8351_s3681_r13145_p4926.R22-1L-zjets-chugli-2_output_root/user.chugli.28624221._000001.output.root
/eos/infnts/atlas/gguerrie/13p6_TeV/ntuples/singlelepton/ntuples_ATR22_Apr2022_mc20d/mc/Zjets/user.chugli.700326.Sh.DAOD_PHYS.e8351_s3681_r13145_p4926.R22-1L-zjets-chugli-2_output_root/user.chugli.28624221._000002.output.root
/eos/infnts/atlas/gguerrie/13p6_TeV/ntuples/singlelepton/ntuples_ATR22_Apr2022_mc20d/mc/Zjets/user.chugli.700326.Sh.DAOD_PHYS.e8351_s3681_r13145_p4926.R22-1L-zjets-chugli-2_output_root/user.chugli.28624221._000003.output.root
/eos/infnts/atlas/gguerrie/13p6_TeV/ntuples/singlelepton/ntuples_ATR22_Apr2022_mc20d/mc/Zjets/user.chugli.700326.Sh.DAOD_PHYS.e8351_s3681_r13145_p4926.R22-1L-zjets-chugli-2_output_root/user.chugli.28624221._000004.output.root
/eos/infnts/atlas/gguerrie/13p6_TeV/ntuples/singlelepton/ntuples_ATR22_Apr2022_mc20d/mc/Zjets/user.chugli.700327.Sh.DAOD_PHYS.e8351_s3681_r13145_p4926.R22-1L-zjets-chugli-2_output_root/user.chugli.28624222._000001.output.root
/eos/infnts/atlas/gguerrie/13p6_TeV/ntuples/singlelepton/ntuples_ATR22_Apr2022_mc20d/mc/Zjets/user.chugli.700327.Sh.DAOD_PHYS.e8351_s3681_r13145_p4926.R22-1L-zjets-chugli-2_output_root/user.chugli.28624222._000002.output.root
/eos/infnts/atlas/gguerrie/13p6_TeV/ntuples/singlelepton/ntuples_ATR22_Apr2022_mc20d/mc/Zjets/user.chugli.700327.Sh.DAOD_PHYS.e8351_s3681_r13145_p4926.R22-1L-zjets-chugli-2_output_root/user.chugli.28624222._000003.output.root
/eos/infnts/atlas/gguerrie/13p6_TeV/ntuples/singlelepton/ntuples_ATR22_Apr2022_mc20d/mc/Zjets/user.chugli.700328.Sh.DAOD_PHYS.e8351_s3681_r13145_p4926.R22-1L-zjets-chugli-2_output_root/user.chugli.28624223._000001.output.root
/eos/infnts/atlas/gguerrie/13p6_TeV/ntuples/singlelepton/ntuples_ATR22_Apr2022_mc20d/mc/Zjets/user.chugli.700328.Sh.DAOD_PHYS.e8351_s3681_r13145_p4926.R22-1L-zjets-chugli-2_output_root/user.chugli.28624223._000002.output.root
/eos/infnts/atlas/gguerrie/13p6_TeV/ntuples/singlelepton/ntuples_ATR22_Apr2022_mc20d/mc/Zjets/user.chugli.700328.Sh.DAOD_PHYS.e8351_s3681_r13145_p4926.R22-1L-zjets-chugli-2_output_root/user.chugli.28624223._000003.output.root
/eos/infnts/atlas/gguerrie/13p6_TeV/ntuples/singlelepton/ntuples_ATR22_Apr2022_mc20d/mc/Zjets/user.chugli.700328.Sh.DAOD_PHYS.e8351_s3681_r13145_p4926.R22-1L-zjets-chugli-2_output_root/user.chugli.28624223._000004.output.root
/eos/infnts/atlas/gguerrie/13p6_TeV/ntuples/singlelepton/ntuples_ATR22_Apr2022_mc20d/mc/Zjets/user.chugli.700329.Sh.DAOD_PHYS.e8351_s3681_r13145_p4926.R22-1L-zjets-chugli-2_output_root/user.chugli.28624224._000001.output.root
/eos/infnts/atlas/gguerrie/13p6_TeV/ntuples/singlelepton/ntuples_ATR22_Apr2022_mc20d/mc/Zjets/user.chugli.700329.Sh.DAOD_PHYS.e8351_s3681_r13145_p4926.R22-1L-zjets-chugli-2_output_root/user.chugli.28624224._000002.output.root
/eos/infnts/atlas/gguerrie/13p6_TeV/ntuples/singlelepton/ntuples_ATR22_Apr2022_mc20d/mc/Zjets/user.chugli.700330.Sh.DAOD_PHYS.e8351_s3681_r13145_p4926.R22-1L-zjets-chugli-2_output_root/user.chugli.28624225._000001.output.root
/eos/infnts/atlas/gguerrie/13p6_TeV/ntuples/singlelepton/ntuples_ATR22_Apr2022_mc20d/mc/Zjets/user.chugli.700330.Sh.DAOD_PHYS.e8351_s3681_r13145_p4926.R22-1L-zjets-chugli-2_output_root/user.chugli.28624225._000002.output.root
/eos/infnts/atlas/gguerrie/13p6_TeV/ntuples/singlelepton/ntuples_ATR22_Apr2022_mc20d/mc/Zjets/user.chugli.700330.Sh.DAOD_PHYS.e8351_s3681_r13145_p4926.R22-1L-zjets-chugli-2_output_root/user.chugli.28624225._000003.output.root
/eos/infnts/atlas/gguerrie/13p6_TeV/ntuples/singlelepton/ntuples_ATR22_Apr2022_mc20d/mc/Zjets/user.chugli.700330.Sh.DAOD_PHYS.e8351_s3681_r13145_p4926.R22-1L-zjets-chugli-2_output_root/user.chugli.28624225._000004.output.root
/eos/infnts/atlas/gguerrie/13p6_TeV/ntuples/singlelepton/ntuples_ATR22_Apr2022_mc20d/mc/Zjets/user.chugli.700330.Sh.DAOD_PHYS.e8351_s3681_r13145_p4926.R22-1L-zjets-chugli-2_output_root/user.chugli.28624225._000005.output.root
/eos/infnts/atlas/gguerrie/13p6_TeV/ntuples/singlelepton/ntuples_ATR22_Apr2022_mc20d/mc/Zjets/user.chugli.700330.Sh.DAOD_PHYS.e8351_s3681_r13145_p4926.R22-1L-zjets-chugli-2_output_root/user.chugli.28624225._000006.output.root
/eos/infnts/atlas/gguerrie/13p6_TeV/ntuples/singlelepton/ntuples_ATR22_Apr2022_mc20d/mc/Zjets/user.chugli.700330.Sh.DAOD_PHYS.e8351_s3681_r13145_p4926.R22-1L-zjets-chugli-2_output_root/user.chugli.28624225._000007.output.root
/eos/infnts/atlas/gguerrie/13p6_TeV/ntuples/singlelepton/ntuples_ATR22_Apr2022_mc20d/mc/Zjets/user.chugli.700330.Sh.DAOD_PHYS.e8351_s3681_r13145_p4926.R22-1L-zjets-chugli-2_output_root/user.chugli.28624225._000008.output.root
/eos/infnts/atlas/gguerrie/13p6_TeV/ntuples/singlelepton/ntuples_ATR22_Apr2022_mc20d/mc/Zjets/user.chugli.700330.Sh.DAOD_PHYS.e8351_s3681_r13145_p4926.R22-1L-zjets-chugli-2_output_root/user.chugli.28624225._000009.output.root
/eos/infnts/atlas/gguerrie/13p6_TeV/ntuples/singlelepton/ntuples_ATR22_Apr2022_mc20d/mc/Zjets/user.chugli.700331.Sh.DAOD_PHYS.e8351_s3681_r13145_p4926.R22-1L-zjets-chugli-2_output_root/user.chugli.28624226._000001.output.root
/eos/infnts/atlas/gguerrie/13p6_TeV/ntuples/singlelepton/ntuples_ATR22_Apr2022_mc20d/mc/Zjets/user.chugli.700331.Sh.DAOD_PHYS.e8351_s3681_r13145_p4926.R22-1L-zjets-chugli-2_output_root/user.chugli.28624226._000002.output.root
/eos/infnts/atlas/gguerrie/13p6_TeV/ntuples/singlelepton/ntuples_ATR22_Apr2022_mc20d/mc/Zjets/user.chugli.700331.Sh.DAOD_PHYS.e8351_s3681_r13145_p4926.R22-1L-zjets-chugli-2_output_root/user.chugli.28624226._000003.output.root
/eos/infnts/atlas/gguerrie/13p6_TeV/ntuples/singlelepton/ntuples_ATR22_Apr2022_mc20d/mc/Zjets/user.chugli.700331.Sh.DAOD_PHYS.e8351_s3681_r13145_p4926.R22-1L-zjets-chugli-2_output_root/user.chugli.28624226._000004.output.root
/eos/infnts/atlas/gguerrie/13p6_TeV/ntuples/singlelepton/ntuples_ATR22_Apr2022_mc20d/mc/Zjets/user.chugli.700332.Sh.DAOD_PHYS.e8351_s3681_r13145_p4926.R22-1L-zjets-chugli-2_output_root/user.chugli.28624227._000001.output.root
/eos/infnts/atlas/gguerrie/13p6_TeV/ntuples/singlelepton/ntuples_ATR22_Apr2022_mc20d/mc/Zjets/user.chugli.700332.Sh.DAOD_PHYS.e8351_s3681_r13145_p4926.R22-1L-zjets-chugli-2_output_root/user.chugli.28624227._000002.output.root
/eos/infnts/atlas/gguerrie/13p6_TeV/ntuples/singlelepton/ntuples_ATR22_Apr2022_mc20d/mc/Zjets/user.chugli.700332.Sh.DAOD_PHYS.e8351_s3681_r13145_p4926.R22-1L-zjets-chugli-2_output_root/user.chugli.28624227._000003.output.root
/eos/infnts/atlas/gguerrie/13p6_TeV/ntuples/singlelepton/ntuples_ATR22_Apr2022_mc20d/mc/Zjets/user.chugli.700333.Sh.DAOD_PHYS.e8351_s3681_r13145_p4926.R22-1L-zjets-chugli-2_output_root/user.chugli.28624228._000001.output.root
/eos/infnts/atlas/gguerrie/13p6_TeV/ntuples/singlelepton/ntuples_ATR22_Apr2022_mc20d/mc/Zjets/user.chugli.700333.Sh.DAOD_PHYS.e8351_s3681_r13145_p4926.R22-1L-zjets-chugli-2_output_root/user.chugli.28624228._000002.output.root
/eos/infnts/atlas/gguerrie/13p6_TeV/ntuples/singlelepton/ntuples_ATR22_Apr2022_mc20d/mc/Zjets/user.chugli.700333.Sh.DAOD_PHYS.e8351_s3681_r13145_p4926.R22-1L-zjets-chugli-2_output_root/user.chugli.28624228._000003.output.root
/eos/infnts/atlas/gguerrie/13p6_TeV/ntuples/singlelepton/ntuples_ATR22_Apr2022_mc20d/mc/Zjets/user.chugli.700333.Sh.DAOD_PHYS.e8351_s3681_r13145_p4926.R22-1L-zjets-chugli-2_output_root/user.chugli.28624228._000004.output.root
/eos/infnts/atlas/gguerrie/13p6_TeV/ntuples/singlelepton/ntuples_ATR22_Apr2022_mc20d/mc/Zjets/user.chugli.700333.Sh.DAOD_PHYS.e8351_s3681_r13145_p4926.R22-1L-zjets-chugli-2_output_root/user.chugli.28624228._000005.output.root
/eos/infnts/atlas/gguerrie/13p6_TeV/ntuples/singlelepton/ntuples_ATR22_Apr2022_mc20d/mc/Zjets/user.chugli.700334.Sh.DAOD_PHYS.e8351_s3681_r13145_p4926.R22-1L-zjets-chugli-2_output_root/user.chugli.28624229._000001.output.root
/eos/infnts/atlas/gguerrie/13p6_TeV/ntuples/singlelepton/ntuples_ATR22_Apr2022_mc20d/mc/Zjets/user.chugli.700334.Sh.DAOD_PHYS.e8351_s3681_r13145_p4926.R22-1L-zjets-chugli-2_output_root/user.chugli.28624229._000002.output.root
/eos/infnts/atlas/gguerrie/13p6_TeV/ntuples/singlelepton/ntuples_ATR22_Apr2022_mc20d/mc/Zjets/user.chugli.700334.Sh.DAOD_PHYS.e8351_s3681_r13145_p4926.R22-1L-zjets-chugli-2_output_root/user.chugli.28624229._000003.output.root
