/eos/infnts/atlas/gguerrie/13p6_TeV/ntuples/singlelepton/ntuples_ATR22_Apr2022_mc20d/mc/Zjets/user.chugli.700320.Sh.DAOD_PHYS.e8351_s3681_r13145_p4926.R22-1L-zjets-chugli-2_output_root/user.chugli.28624214._000001.output.root
/eos/infnts/atlas/gguerrie/13p6_TeV/ntuples/singlelepton/ntuples_ATR22_Apr2022_mc20d/mc/Zjets/user.chugli.700320.Sh.DAOD_PHYS.e8351_s3681_r13145_p4926.R22-1L-zjets-chugli-2_output_root/user.chugli.28624214._000002.output.root
/eos/infnts/atlas/gguerrie/13p6_TeV/ntuples/singlelepton/ntuples_ATR22_Apr2022_mc20d/mc/Zjets/user.chugli.700320.Sh.DAOD_PHYS.e8351_s3681_r13145_p4926.R22-1L-zjets-chugli-2_output_root/user.chugli.28624214._000003.output.root
/eos/infnts/atlas/gguerrie/13p6_TeV/ntuples/singlelepton/ntuples_ATR22_Apr2022_mc20d/mc/Zjets/user.chugli.700320.Sh.DAOD_PHYS.e8351_s3681_r13145_p4926.R22-1L-zjets-chugli-2_output_root/user.chugli.28624214._000004.output.root
/eos/infnts/atlas/gguerrie/13p6_TeV/ntuples/singlelepton/ntuples_ATR22_Apr2022_mc20d/mc/Zjets/user.chugli.700320.Sh.DAOD_PHYS.e8351_s3681_r13145_p4926.R22-1L-zjets-chugli-2_output_root/user.chugli.28624214._000005.output.root
/eos/infnts/atlas/gguerrie/13p6_TeV/ntuples/singlelepton/ntuples_ATR22_Apr2022_mc20d/mc/Zjets/user.chugli.700320.Sh.DAOD_PHYS.e8351_s3681_r13145_p4926.R22-1L-zjets-chugli-2_output_root/user.chugli.28624214._000006.output.root
/eos/infnts/atlas/gguerrie/13p6_TeV/ntuples/singlelepton/ntuples_ATR22_Apr2022_mc20d/mc/Zjets/user.chugli.700320.Sh.DAOD_PHYS.e8351_s3681_r13145_p4926.R22-1L-zjets-chugli-2_output_root/user.chugli.28624214._000007.output.root
/eos/infnts/atlas/gguerrie/13p6_TeV/ntuples/singlelepton/ntuples_ATR22_Apr2022_mc20d/mc/Zjets/user.chugli.700320.Sh.DAOD_PHYS.e8351_s3681_r13145_p4926.R22-1L-zjets-chugli-2_output_root/user.chugli.28624214._000008.output.root
/eos/infnts/atlas/gguerrie/13p6_TeV/ntuples/singlelepton/ntuples_ATR22_Apr2022_mc20d/mc/Zjets/user.chugli.700321.Sh.DAOD_PHYS.e8351_s3681_r13145_p4926.R22-1L-zjets-chugli-2_output_root/user.chugli.28624215._000001.output.root
/eos/infnts/atlas/gguerrie/13p6_TeV/ntuples/singlelepton/ntuples_ATR22_Apr2022_mc20d/mc/Zjets/user.chugli.700321.Sh.DAOD_PHYS.e8351_s3681_r13145_p4926.R22-1L-zjets-chugli-2_output_root/user.chugli.28624215._000002.output.root
/eos/infnts/atlas/gguerrie/13p6_TeV/ntuples/singlelepton/ntuples_ATR22_Apr2022_mc20d/mc/Zjets/user.chugli.700321.Sh.DAOD_PHYS.e8351_s3681_r13145_p4926.R22-1L-zjets-chugli-2_output_root/user.chugli.28624215._000003.output.root
/eos/infnts/atlas/gguerrie/13p6_TeV/ntuples/singlelepton/ntuples_ATR22_Apr2022_mc20d/mc/Zjets/user.chugli.700321.Sh.DAOD_PHYS.e8351_s3681_r13145_p4926.R22-1L-zjets-chugli-2_output_root/user.chugli.28624215._000004.output.root
/eos/infnts/atlas/gguerrie/13p6_TeV/ntuples/singlelepton/ntuples_ATR22_Apr2022_mc20d/mc/Zjets/user.chugli.700321.Sh.DAOD_PHYS.e8351_s3681_r13145_p4926.R22-1L-zjets-chugli-2_output_root/user.chugli.28624215._000005.output.root
/eos/infnts/atlas/gguerrie/13p6_TeV/ntuples/singlelepton/ntuples_ATR22_Apr2022_mc20d/mc/Zjets/user.chugli.700321.Sh.DAOD_PHYS.e8351_s3681_r13145_p4926.R22-1L-zjets-chugli-2_output_root/user.chugli.28624215._000006.output.root
/eos/infnts/atlas/gguerrie/13p6_TeV/ntuples/singlelepton/ntuples_ATR22_Apr2022_mc20d/mc/Zjets/user.chugli.700321.Sh.DAOD_PHYS.e8351_s3681_r13145_p4926.R22-1L-zjets-chugli-2_output_root/user.chugli.28624215._000007.output.root
/eos/infnts/atlas/gguerrie/13p6_TeV/ntuples/singlelepton/ntuples_ATR22_Apr2022_mc20d/mc/Zjets/user.chugli.700321.Sh.DAOD_PHYS.e8351_s3681_r13145_p4926.R22-1L-zjets-chugli-2_output_root/user.chugli.28624215._000008.output.root
/eos/infnts/atlas/gguerrie/13p6_TeV/ntuples/singlelepton/ntuples_ATR22_Apr2022_mc20d/mc/Zjets/user.chugli.700321.Sh.DAOD_PHYS.e8351_s3681_r13145_p4926.R22-1L-zjets-chugli-2_output_root/user.chugli.28624215._000009.output.root
/eos/infnts/atlas/gguerrie/13p6_TeV/ntuples/singlelepton/ntuples_ATR22_Apr2022_mc20d/mc/Zjets/user.chugli.700321.Sh.DAOD_PHYS.e8351_s3681_r13145_p4926.R22-1L-zjets-chugli-2_output_root/user.chugli.28624215._000010.output.root
/eos/infnts/atlas/gguerrie/13p6_TeV/ntuples/singlelepton/ntuples_ATR22_Apr2022_mc20d/mc/Zjets/user.chugli.700321.Sh.DAOD_PHYS.e8351_s3681_r13145_p4926.R22-1L-zjets-chugli-2_output_root/user.chugli.28624215._000011.output.root
/eos/infnts/atlas/gguerrie/13p6_TeV/ntuples/singlelepton/ntuples_ATR22_Apr2022_mc20d/mc/Zjets/user.chugli.700321.Sh.DAOD_PHYS.e8351_s3681_r13145_p4926.R22-1L-zjets-chugli-2_output_root/user.chugli.28624215._000012.output.root
/eos/infnts/atlas/gguerrie/13p6_TeV/ntuples/singlelepton/ntuples_ATR22_Apr2022_mc20d/mc/Zjets/user.chugli.700321.Sh.DAOD_PHYS.e8351_s3681_r13145_p4926.R22-1L-zjets-chugli-2_output_root/user.chugli.28624215._000013.output.root
/eos/infnts/atlas/gguerrie/13p6_TeV/ntuples/singlelepton/ntuples_ATR22_Apr2022_mc20d/mc/Zjets/user.chugli.700321.Sh.DAOD_PHYS.e8351_s3681_r13145_p4926.R22-1L-zjets-chugli-2_output_root/user.chugli.28624215._000014.output.root
/eos/infnts/atlas/gguerrie/13p6_TeV/ntuples/singlelepton/ntuples_ATR22_Apr2022_mc20d/mc/Zjets/user.chugli.700321.Sh.DAOD_PHYS.e8351_s3681_r13145_p4926.R22-1L-zjets-chugli-2_output_root/user.chugli.28624215._000015.output.root
/eos/infnts/atlas/gguerrie/13p6_TeV/ntuples/singlelepton/ntuples_ATR22_Apr2022_mc20d/mc/Zjets/user.chugli.700321.Sh.DAOD_PHYS.e8351_s3681_r13145_p4926.R22-1L-zjets-chugli-2_output_root/user.chugli.28624215._000016.output.root
/eos/infnts/atlas/gguerrie/13p6_TeV/ntuples/singlelepton/ntuples_ATR22_Apr2022_mc20d/mc/Zjets/user.chugli.700321.Sh.DAOD_PHYS.e8351_s3681_r13145_p4926.R22-1L-zjets-chugli-2_output_root/user.chugli.28624215._000017.output.root
/eos/infnts/atlas/gguerrie/13p6_TeV/ntuples/singlelepton/ntuples_ATR22_Apr2022_mc20d/mc/Zjets/user.chugli.700321.Sh.DAOD_PHYS.e8351_s3681_r13145_p4926.R22-1L-zjets-chugli-2_output_root/user.chugli.28624215._000018.output.root
/eos/infnts/atlas/gguerrie/13p6_TeV/ntuples/singlelepton/ntuples_ATR22_Apr2022_mc20d/mc/Zjets/user.chugli.700321.Sh.DAOD_PHYS.e8351_s3681_r13145_p4926.R22-1L-zjets-chugli-2_output_root/user.chugli.28624215._000019.output.root
/eos/infnts/atlas/gguerrie/13p6_TeV/ntuples/singlelepton/ntuples_ATR22_Apr2022_mc20d/mc/Zjets/user.chugli.700322.Sh.DAOD_PHYS.e8351_s3681_r13145_p4926.R22-1L-zjets-chugli-2_output_root/user.chugli.28624216._000001.output.root
/eos/infnts/atlas/gguerrie/13p6_TeV/ntuples/singlelepton/ntuples_ATR22_Apr2022_mc20d/mc/Zjets/user.chugli.700322.Sh.DAOD_PHYS.e8351_s3681_r13145_p4926.R22-1L-zjets-chugli-2_output_root/user.chugli.28624216._000002.output.root
/eos/infnts/atlas/gguerrie/13p6_TeV/ntuples/singlelepton/ntuples_ATR22_Apr2022_mc20d/mc/Zjets/user.chugli.700322.Sh.DAOD_PHYS.e8351_s3681_r13145_p4926.R22-1L-zjets-chugli-2_output_root/user.chugli.28624216._000003.output.root
/eos/infnts/atlas/gguerrie/13p6_TeV/ntuples/singlelepton/ntuples_ATR22_Apr2022_mc20d/mc/Zjets/user.chugli.700322.Sh.DAOD_PHYS.e8351_s3681_r13145_p4926.R22-1L-zjets-chugli-2_output_root/user.chugli.28624216._000004.output.root
/eos/infnts/atlas/gguerrie/13p6_TeV/ntuples/singlelepton/ntuples_ATR22_Apr2022_mc20d/mc/Zjets/user.chugli.700322.Sh.DAOD_PHYS.e8351_s3681_r13145_p4926.R22-1L-zjets-chugli-2_output_root/user.chugli.28624216._000005.output.root
/eos/infnts/atlas/gguerrie/13p6_TeV/ntuples/singlelepton/ntuples_ATR22_Apr2022_mc20d/mc/Zjets/user.chugli.700322.Sh.DAOD_PHYS.e8351_s3681_r13145_p4926.R22-1L-zjets-chugli-2_output_root/user.chugli.28624216._000006.output.root
/eos/infnts/atlas/gguerrie/13p6_TeV/ntuples/singlelepton/ntuples_ATR22_Apr2022_mc20d/mc/Zjets/user.chugli.700322.Sh.DAOD_PHYS.e8351_s3681_r13145_p4926.R22-1L-zjets-chugli-2_output_root/user.chugli.28624216._000007.output.root
/eos/infnts/atlas/gguerrie/13p6_TeV/ntuples/singlelepton/ntuples_ATR22_Apr2022_mc20d/mc/Zjets/user.chugli.700322.Sh.DAOD_PHYS.e8351_s3681_r13145_p4926.R22-1L-zjets-chugli-2_output_root/user.chugli.28624216._000008.output.root
/eos/infnts/atlas/gguerrie/13p6_TeV/ntuples/singlelepton/ntuples_ATR22_Apr2022_mc20d/mc/Zjets/user.chugli.700322.Sh.DAOD_PHYS.e8351_s3681_r13145_p4926.R22-1L-zjets-chugli-2_output_root/user.chugli.28624216._000009.output.root
/eos/infnts/atlas/gguerrie/13p6_TeV/ntuples/singlelepton/ntuples_ATR22_Apr2022_mc20d/mc/Zjets/user.chugli.700322.Sh.DAOD_PHYS.e8351_s3681_r13145_p4926.R22-1L-zjets-chugli-2_output_root/user.chugli.28624216._000010.output.root
/eos/infnts/atlas/gguerrie/13p6_TeV/ntuples/singlelepton/ntuples_ATR22_Apr2022_mc20d/mc/Zjets/user.chugli.700322.Sh.DAOD_PHYS.e8351_s3681_r13145_p4926.R22-1L-zjets-chugli-2_output_root/user.chugli.28624216._000011.output.root
/eos/infnts/atlas/gguerrie/13p6_TeV/ntuples/singlelepton/ntuples_ATR22_Apr2022_mc20d/mc/Zjets/user.chugli.700322.Sh.DAOD_PHYS.e8351_s3681_r13145_p4926.R22-1L-zjets-chugli-2_output_root/user.chugli.28624216._000012.output.root
/eos/infnts/atlas/gguerrie/13p6_TeV/ntuples/singlelepton/ntuples_ATR22_Apr2022_mc20d/mc/Zjets/user.chugli.700322.Sh.DAOD_PHYS.e8351_s3681_r13145_p4926.R22-1L-zjets-chugli-2_output_root/user.chugli.28624216._000013.output.root
/eos/infnts/atlas/gguerrie/13p6_TeV/ntuples/singlelepton/ntuples_ATR22_Apr2022_mc20d/mc/Zjets/user.chugli.700322.Sh.DAOD_PHYS.e8351_s3681_r13145_p4926.R22-1L-zjets-chugli-2_output_root/user.chugli.28624216._000014.output.root
/eos/infnts/atlas/gguerrie/13p6_TeV/ntuples/singlelepton/ntuples_ATR22_Apr2022_mc20d/mc/Zjets/user.chugli.700322.Sh.DAOD_PHYS.e8351_s3681_r13145_p4926.R22-1L-zjets-chugli-2_output_root/user.chugli.28624216._000015.output.root
/eos/infnts/atlas/gguerrie/13p6_TeV/ntuples/singlelepton/ntuples_ATR22_Apr2022_mc20d/mc/Zjets/user.chugli.700322.Sh.DAOD_PHYS.e8351_s3681_r13145_p4926.R22-1L-zjets-chugli-2_output_root/user.chugli.28624216._000016.output.root
/eos/infnts/atlas/gguerrie/13p6_TeV/ntuples/singlelepton/ntuples_ATR22_Apr2022_mc20d/mc/Zjets/user.chugli.700322.Sh.DAOD_PHYS.e8351_s3681_r13145_p4926.R22-1L-zjets-chugli-2_output_root/user.chugli.28624216._000017.output.root
/eos/infnts/atlas/gguerrie/13p6_TeV/ntuples/singlelepton/ntuples_ATR22_Apr2022_mc20d/mc/Zjets/user.chugli.700322.Sh.DAOD_PHYS.e8351_s3681_r13145_p4926.R22-1L-zjets-chugli-2_output_root/user.chugli.28624216._000018.output.root
/eos/infnts/atlas/gguerrie/13p6_TeV/ntuples/singlelepton/ntuples_ATR22_Apr2022_mc20d/mc/Zjets/user.chugli.700322.Sh.DAOD_PHYS.e8351_s3681_r13145_p4926.R22-1L-zjets-chugli-2_output_root/user.chugli.28624216._000019.output.root
/eos/infnts/atlas/gguerrie/13p6_TeV/ntuples/singlelepton/ntuples_ATR22_Apr2022_mc20d/mc/Zjets/user.chugli.700322.Sh.DAOD_PHYS.e8351_s3681_r13145_p4926.R22-1L-zjets-chugli-2_output_root/user.chugli.28624216._000020.output.root
/eos/infnts/atlas/gguerrie/13p6_TeV/ntuples/singlelepton/ntuples_ATR22_Apr2022_mc20d/mc/Zjets/user.chugli.700322.Sh.DAOD_PHYS.e8351_s3681_r13145_p4926.R22-1L-zjets-chugli-2_output_root/user.chugli.28624216._000021.output.root
/eos/infnts/atlas/gguerrie/13p6_TeV/ntuples/singlelepton/ntuples_ATR22_Apr2022_mc20d/mc/Zjets/user.chugli.700322.Sh.DAOD_PHYS.e8351_s3681_r13145_p4926.R22-1L-zjets-chugli-2_output_root/user.chugli.28624216._000022.output.root
/eos/infnts/atlas/gguerrie/13p6_TeV/ntuples/singlelepton/ntuples_ATR22_Apr2022_mc20d/mc/Zjets/user.chugli.700322.Sh.DAOD_PHYS.e8351_s3681_r13145_p4926.R22-1L-zjets-chugli-2_output_root/user.chugli.28624216._000023.output.root
/eos/infnts/atlas/gguerrie/13p6_TeV/ntuples/singlelepton/ntuples_ATR22_Apr2022_mc20d/mc/Zjets/user.chugli.700322.Sh.DAOD_PHYS.e8351_s3681_r13145_p4926.R22-1L-zjets-chugli-2_output_root/user.chugli.28624216._000024.output.root
/eos/infnts/atlas/gguerrie/13p6_TeV/ntuples/singlelepton/ntuples_ATR22_Apr2022_mc20d/mc/Zjets/user.chugli.700322.Sh.DAOD_PHYS.e8351_s3681_r13145_p4926.R22-1L-zjets-chugli-2_output_root/user.chugli.28624216._000025.output.root
/eos/infnts/atlas/gguerrie/13p6_TeV/ntuples/singlelepton/ntuples_ATR22_Apr2022_mc20d/mc/Zjets/user.chugli.700322.Sh.DAOD_PHYS.e8351_s3681_r13145_p4926.R22-1L-zjets-chugli-2_output_root/user.chugli.28624216._000026.output.root
/eos/infnts/atlas/gguerrie/13p6_TeV/ntuples/singlelepton/ntuples_ATR22_Apr2022_mc20d/mc/Zjets/user.chugli.700322.Sh.DAOD_PHYS.e8351_s3681_r13145_p4926.R22-1L-zjets-chugli-2_output_root/user.chugli.28624216._000027.output.root
/eos/infnts/atlas/gguerrie/13p6_TeV/ntuples/singlelepton/ntuples_ATR22_Apr2022_mc20d/mc/Zjets/user.chugli.700322.Sh.DAOD_PHYS.e8351_s3681_r13145_p4926.R22-1L-zjets-chugli-2_output_root/user.chugli.28624216._000028.output.root
/eos/infnts/atlas/gguerrie/13p6_TeV/ntuples/singlelepton/ntuples_ATR22_Apr2022_mc20d/mc/Zjets/user.chugli.700322.Sh.DAOD_PHYS.e8351_s3681_r13145_p4926.R22-1L-zjets-chugli-2_output_root/user.chugli.28624216._000029.output.root
/eos/infnts/atlas/gguerrie/13p6_TeV/ntuples/singlelepton/ntuples_ATR22_Apr2022_mc20d/mc/Zjets/user.chugli.700322.Sh.DAOD_PHYS.e8351_s3681_r13145_p4926.R22-1L-zjets-chugli-2_output_root/user.chugli.28624216._000030.output.root
/eos/infnts/atlas/gguerrie/13p6_TeV/ntuples/singlelepton/ntuples_ATR22_Apr2022_mc20d/mc/Zjets/user.chugli.700322.Sh.DAOD_PHYS.e8351_s3681_r13145_p4926.R22-1L-zjets-chugli-2_output_root/user.chugli.28624216._000031.output.root
/eos/infnts/atlas/gguerrie/13p6_TeV/ntuples/singlelepton/ntuples_ATR22_Apr2022_mc20d/mc/Zjets/user.chugli.700322.Sh.DAOD_PHYS.e8351_s3681_r13145_p4926.R22-1L-zjets-chugli-2_output_root/user.chugli.28624216._000032.output.root
/eos/infnts/atlas/gguerrie/13p6_TeV/ntuples/singlelepton/ntuples_ATR22_Apr2022_mc20d/mc/Zjets/user.chugli.700322.Sh.DAOD_PHYS.e8351_s3681_r13145_p4926.R22-1L-zjets-chugli-2_output_root/user.chugli.28624216._000033.output.root
/eos/infnts/atlas/gguerrie/13p6_TeV/ntuples/singlelepton/ntuples_ATR22_Apr2022_mc20d/mc/Zjets/user.chugli.700322.Sh.DAOD_PHYS.e8351_s3681_r13145_p4926.R22-1L-zjets-chugli-2_output_root/user.chugli.28624216._000034.output.root
/eos/infnts/atlas/gguerrie/13p6_TeV/ntuples/singlelepton/ntuples_ATR22_Apr2022_mc20d/mc/Zjets/user.chugli.700322.Sh.DAOD_PHYS.e8351_s3681_r13145_p4926.R22-1L-zjets-chugli-2_output_root/user.chugli.28624216._000035.output.root
/eos/infnts/atlas/gguerrie/13p6_TeV/ntuples/singlelepton/ntuples_ATR22_Apr2022_mc20d/mc/Zjets/user.chugli.700322.Sh.DAOD_PHYS.e8351_s3681_r13145_p4926.R22-1L-zjets-chugli-2_output_root/user.chugli.28624216._000036.output.root
/eos/infnts/atlas/gguerrie/13p6_TeV/ntuples/singlelepton/ntuples_ATR22_Apr2022_mc20d/mc/Zjets/user.chugli.700322.Sh.DAOD_PHYS.e8351_s3681_r13145_p4926.R22-1L-zjets-chugli-2_output_root/user.chugli.28624216._000037.output.root
/eos/infnts/atlas/gguerrie/13p6_TeV/ntuples/singlelepton/ntuples_ATR22_Apr2022_mc20d/mc/Zjets/user.chugli.700322.Sh.DAOD_PHYS.e8351_s3681_r13145_p4926.R22-1L-zjets-chugli-2_output_root/user.chugli.28624216._000038.output.root
/eos/infnts/atlas/gguerrie/13p6_TeV/ntuples/singlelepton/ntuples_ATR22_Apr2022_mc20d/mc/Zjets/user.chugli.700322.Sh.DAOD_PHYS.e8351_s3681_r13145_p4926.R22-1L-zjets-chugli-2_output_root/user.chugli.28624216._000039.output.root
/eos/infnts/atlas/gguerrie/13p6_TeV/ntuples/singlelepton/ntuples_ATR22_Apr2022_mc20d/mc/Zjets/user.chugli.700322.Sh.DAOD_PHYS.e8351_s3681_r13145_p4926.R22-1L-zjets-chugli-2_output_root/user.chugli.28624216._000040.output.root
/eos/infnts/atlas/gguerrie/13p6_TeV/ntuples/singlelepton/ntuples_ATR22_Apr2022_mc20d/mc/Zjets/user.chugli.700322.Sh.DAOD_PHYS.e8351_s3681_r13145_p4926.R22-1L-zjets-chugli-2_output_root/user.chugli.28624216._000041.output.root
/eos/infnts/atlas/gguerrie/13p6_TeV/ntuples/singlelepton/ntuples_ATR22_Apr2022_mc20d/mc/Zjets/user.chugli.700322.Sh.DAOD_PHYS.e8351_s3681_r13145_p4926.R22-1L-zjets-chugli-2_output_root/user.chugli.28624216._000042.output.root
/eos/infnts/atlas/gguerrie/13p6_TeV/ntuples/singlelepton/ntuples_ATR22_Apr2022_mc20d/mc/Zjets/user.chugli.700322.Sh.DAOD_PHYS.e8351_s3681_r13145_p4926.R22-1L-zjets-chugli-2_output_root/user.chugli.28624216._000043.output.root
/eos/infnts/atlas/gguerrie/13p6_TeV/ntuples/singlelepton/ntuples_ATR22_Apr2022_mc20d/mc/Zjets/user.chugli.700322.Sh.DAOD_PHYS.e8351_s3681_r13145_p4926.R22-1L-zjets-chugli-2_output_root/user.chugli.28624216._000044.output.root
/eos/infnts/atlas/gguerrie/13p6_TeV/ntuples/singlelepton/ntuples_ATR22_Apr2022_mc20d/mc/Zjets/user.chugli.700322.Sh.DAOD_PHYS.e8351_s3681_r13145_p4926.R22-1L-zjets-chugli-2_output_root/user.chugli.28624216._000045.output.root
